crc/vcd/asep_crc_dump1.vcd
$date
        2024-Dec-20 03:59:42
$end
$version
        Vivado Lab Edition v2020.2 (64-bit)
$end
$timescale
        1ps
$end
$scope module dut $end
$var reg 4 " io_dataBitEnable [3:0] $end
$var reg 1 & io_init $end
$var reg 1 ' io_enable_1 $end
$var reg 1 ( capture_cntr $end
$var reg 1 ) m_tready $end
$var reg 1 * m_tvalid $end
$var reg 1 + m_err $end
$var reg 1 , s_tready $end
$var reg 4 - s_tkeep [3:0] $end
$var reg 1 1 s_tvalid $end
$var reg 3 2 word_cntr [2:0] $end
$var reg 1 5 s_tuser[sop] $end
$var reg 1 6 ptb_en $end
$var reg 1 7 vl_pkt $end
$var reg 1 8 vl_hdr_crc_ready $end
$var reg 1 9 check_vl_hdr_crc_cycle_q $end
$var reg 1 : check_vl_hdr_crc $end
$var reg 1 ; vl_null_data_q $end
$var reg 1 < s_tlast $end
$var reg 1 = io_enable $end
$var reg 1 > vl_crc_err_q $end
$var reg 1 ? pkt_crc_err $end
$var reg 1 @ crc_err_irq_q $end
$var reg 1 A <const0>_1 $end
$var reg 8 B io_dataIn_rev[0]_1 [7:0] $end
$var reg 8 J io_dataIn_rev[1]_1 [7:0] $end
$var reg 8 R io_dataIn_rev[2]_1 [7:0] $end
$var reg 8 Z s_tdata[3] [7:0] $end
$var reg 8 b io_dataOut_rev[0] [7:0] $end
$var reg 8 j io_dataOut_rev[1] [7:0] $end
$var reg 8 r io_dataOut_rev[2] [7:0] $end
$var reg 8 z io_dataOut_rev[3] [7:0] $end
$var reg 8 $" io_dataIn_rev[0] [7:0] $end
$var reg 8 ," io_dataIn_rev[1] [7:0] $end
$var reg 8 4" io_dataIn_rev[2] [7:0] $end
$var reg 8 <" io_dataIn_rev[3] [7:0] $end
$var reg 32 D" cntr_cntr_q [31:0] $end
$var reg 1 d" <const0>_2 $end
$var reg 1 e" <const0>_3 $end
$var reg 1 f" <const0>_4 $end
$var reg 1 g" <const0>_5 $end
$var reg 1 h" <const0>_6 $end
$var reg 1 i" <const0>_7 $end
$var reg 1 j" <const0>_8 $end
$var reg 1 k" <const0>_9 $end
$var reg 1 l" <const0>_10 $end
$var reg 1 m" <const0>_11 $end
$var reg 1 n" <const0>_12 $end
$var reg 1 o" <const0>_13 $end
$var reg 1 p" <const0>_14 $end
$var reg 1 q" <const0>_15 $end
$var reg 1 r" <const0>_16 $end
$var reg 1 s" <const0>_17 $end
$var reg 1 t" <const0>_18 $end
$var reg 1 u" <const0>_19 $end
$var reg 1 v" <const0>_20 $end
$var reg 1 w" <const0>_21 $end
$var reg 1 x" <const0>_22 $end
$var reg 1 y" <const0>_23 $end
$var reg 1 z" <const0>_24 $end
$var reg 1 {" <const0>_25 $end
$var reg 1 |" <const0>_26 $end
$var reg 1 }" <const0>_27 $end
$var reg 1 ~" <const0>_28 $end
$var reg 1 !# <const0>_29 $end
$var reg 1 "# <const0>_30 $end
$var reg 1 ## <const0>_31 $end
$var reg 1 $# <const0>_32 $end
$var reg 1 %# <const0>_33 $end
$var reg 1 &# <const0>_34 $end
$var reg 1 '# <const0>_35 $end
$var reg 1 (# <const0>_36 $end
$var reg 1 )# <const0>_37 $end
$var reg 1 *# <const0>_38 $end
$var reg 1 +# <const0>_39 $end
$var reg 1 ,# <const0>_40 $end
$var reg 1 -# <const0>_41 $end
$var reg 1 .# <const0>_42 $end
$var reg 1 /# <const0>_43 $end
$var reg 1 0# <const0>_44 $end
$var reg 1 1# <const0>_45 $end
$var reg 1 2# <const0>_46 $end
$var reg 1 3# <const0>_47 $end
$var reg 1 4# <const0>_48 $end
$var reg 1 5# <const0>_49 $end
$var reg 1 6# <const0>_50 $end
$var reg 1 7# <const0>_51 $end
$var reg 1 8# <const0>_52 $end
$var reg 1 9# <const0>_53 $end
$var reg 1 :# <const0>_54 $end
$var reg 1 ;# <const0>_55 $end
$var reg 1 <# <const0>_56 $end
$var reg 1 =# <const0>_57 $end
$var reg 1 ># <const0>_58 $end
$var reg 1 ?# <const0>_59 $end
$var reg 1 @# <const0>_60 $end
$var reg 1 A# <const0>_61 $end
$var reg 1 B# <const0>_62 $end
$var reg 1 C# <const0>_63 $end
$var reg 1 D# <const0>_64 $end
$var reg 1 E# <const0>_65 $end
$var reg 1 F# <const0>_66 $end
$var reg 1 G# <const0>_67 $end
$var reg 1 H# <const0>_68 $end
$var reg 1 I# <const0>_69 $end
$var reg 1 J# <const0>_70 $end
$var reg 1 K# <const0>_71 $end
$var reg 1 L# <const0>_72 $end
$var reg 1 M# <const0>_73 $end
$var reg 1 N# <const0>_74 $end
$var reg 1 O# <const0>_75 $end
$var reg 1 P# <const0>_76 $end
$var reg 1 Q# <const0>_77 $end
$var reg 1 R# <const0>_78 $end
$var reg 1 S# <const0>_79 $end
$var reg 1 T# <const0>_80 $end
$var reg 1 U# <const0>_81 $end
$var reg 1 V# <const0>_82 $end
$var reg 1 W# <const0>_83 $end
$var reg 1 X# <const0>_84 $end
$var reg 1 Y# <const0>_85 $end
$var reg 1 Z# <const0>_86 $end
$var reg 1 [# <const0>_87 $end
$var reg 1 \# <const0>_88 $end
$var reg 1 ]# <const0>_89 $end
$var reg 1 ^# <const0>_90 $end
$var reg 1 _# <const0>_91 $end
$var reg 1 `# <const0>_92 $end
$var reg 1 a# <const0>_93 $end
$var reg 1 b# <const0>_94 $end
$var reg 1 c# <const0>_95 $end
$var reg 1 d# <const0>_96 $end
$var reg 1 e# <const0> $end
$var reg 1 f# _TRIGGER $end
$var reg 1 g# _WINDOW $end
$var reg 1 h# _GAP $end
$upscope $end
$enddefinitions $end
#0
$dumpvars
b1111 "
0&
1'
0(
1)
1*
0+
1,
b1111 -
11
b111 2
05
06
17
08
09
0:
0;
0<
1=
0>
0?
0@
0A
b1100110 B
b11001100 J
b11001100 R
b11001100 Z
b1000111 b
b11110001 j
b11001 r
b11110101 z
b1100110 $"
b11001100 ,"
b11001100 4"
b11001100 <"
b10011111001111 D"
0d"
0e"
0f"
0g"
0h"
0i"
0j"
0k"
0l"
0m"
0n"
0o"
0p"
0q"
0r"
0s"
0t"
0u"
0v"
0w"
0x"
0y"
0z"
0{"
0|"
0}"
0~"
0!#
0"#
0##
0$#
0%#
0&#
0'#
0(#
0)#
0*#
0+#
0,#
0-#
0.#
0/#
00#
01#
02#
03#
04#
05#
06#
07#
08#
09#
0:#
0;#
0<#
0=#
0>#
0?#
0@#
0A#
0B#
0C#
0D#
0E#
0F#
0G#
0H#
0I#
0J#
0K#
0L#
0M#
0N#
0O#
0P#
0Q#
0R#
0S#
0T#
0U#
0V#
0W#
0X#
0Y#
0Z#
0[#
0\#
0]#
0^#
0_#
0`#
0a#
0b#
0c#
0d#
0e#
0f#
1g#
0h#
$end
#1
b1100110 J
b1100110 R
b1100110 Z
b11101100 b
b10111110 j
b11001101 r
b10010101 z
b1100110 ,"
b1100110 4"
b1100110 <"
#2
b110011 B
b1101001 b
b1111010 j
b100101 r
b1000100 z
b110011 $"
#3
b110011 J
b110011 R
b110011 Z
b1010101 b
b10111110 j
b11111101 r
b1001001 z
b110011 ,"
b110011 4"
b110011 <"
#4
b10011000 B
b101011 b
b10101010 j
b10000101 r
b10000010 z
b10011000 $"
#5
b10011000 J
b10011000 R
b10011000 Z
b10001101 b
b10 j
b1110000 r
b11010 z
b10011000 ,"
b10011000 4"
b10011000 <"
#6
b1001100 B
b110110 b
b10000100 j
b1111100 r
b10101111 z
b1001100 $"
#7
b1001100 J
b1001100 R
b1001100 Z
b10110011 b
b111 j
b10010010 r
b111111 z
b1001100 ,"
b1001100 4"
b1001100 <"
#8
b100110 B
b10 b
b1101110 j
b11110011 r
b1110101 z
b100110 $"
#9
b100110 J
b100110 R
b100110 Z
b1100011 b
b11110101 j
b11001 r
b11111100 z
b100110 ,"
b100110 4"
b100110 <"
#10
b10011 B
b10110000 b
b10100100 j
b1011110 r
b1001 z
b10011 $"
#11
b10011 J
b10011 R
b10011 Z
b11110101 b
b1101 j
b11000010 r
b1101000 z
b10011 ,"
b10011 4"
b10011 <"
#12
b10001000 B
b11101111 b
b11101000 j
b11110110 r
b11110100 z
b10001000 $"
#13
b10001000 J
b10001000 R
b10001000 Z
b11100011 b
b1100111 j
b10001111 r
b1011 z
b10001000 ,"
b10001000 4"
b10001000 <"
#14
b1000100 B
b10000010 b
b1010011 j
b11000 r
b1110111 z
b1000100 $"
#15
b1000100 J
b1000100 R
b1000100 Z
b11100000 b
b10010100 j
b10011011 r
b1 z
b1000100 ,"
b1000100 4"
b1000100 <"
#16
b100010 B
b1010011 b
b11111010 j
b10101101 r
b10010111 z
b100010 $"
#17
b100010 J
b100010 R
b100010 Z
b11000000 b
b11101111 j
b11101 r
b111101 z
b100010 ,"
b100010 4"
b100010 <"
#18
b10001 B
b11010 b
b100010 j
b1110110 r
b1010 z
b10001 $"
#19
b10001 J
b10001 R
b10001 Z
b11111001 b
b1010010 j
b11111 r
b11101011 z
b10001 ,"
b10001 4"
b10001 <"
#20
b10001001 B
b11101101 b
b1010101 j
b1101000 r
b10101100 z
b10001001 $"
#21
b10001001 J
b10001001 R
b10001001 Z
b1010001 b
b1111011 j
b111010 r
b10100000 z
b10001001 ,"
b10001001 4"
b10001001 <"
#22
b11000101 B
b11100010 b
b11 j
b10110110 r
b1010100 z
b11000101 $"
#23
b11000101 J
b11000101 R
b11000101 Z
b11010101 b
b11101010 j
b1001000 r
b1111110 z
b11000101 ,"
b11000101 4"
b11000101 <"
#24
b11100011 B
b1100111 b
b1010111 j
b10001010 r
b10111000 z
b11100011 $"
#25
b11100011 J
b11100011 R
b11100011 Z
b11111010 b
b110101 j
b1101100 r
b100011 z
b11100011 ,"
b11100011 4"
b11100011 <"
#26
b11110000 B
b11101110 b
b11100 j
b11010101 z
b11110000 $"
#27
b11110000 J
b11110000 R
b11110000 Z
b1110001 b
b100000 j
b11111001 r
b11001110 z
b11110000 ,"
b11110000 4"
b11110000 <"
#28
b1111000 B
b10000111 b
b11110110 j
b10101101 r
b1011011 z
b1111000 $"
#29
b1111000 J
b1111000 R
b1111000 Z
b10001101 b
b11011111 j
b110101 r
b11101111 z
b1111000 ,"
b1111000 4"
b1111000 <"
#30
b111100 B
b1000011 b
b10001000 j
b11010111 r
b11001011 z
b111100 $"
#31
b111100 J
b111100 R
b111100 Z
b10011 b
b11010110 j
b10010001 r
b11111 z
b111100 ,"
b111100 4"
b111100 <"
#32
b11110 B
b11010111 b
b100 j
b1101010 r
b10 z
b11110 $"
#33
b11110 J
b11110 R
b11110 Z
b1011101 b
b1000110 j
b1101011 r
b1110000 z
b11110 ,"
b11110 4"
b11110 <"
#34
b1111 B
b10001100 b
b101111 j
b1010011 r
b110110 z
b1111 $"
#35
b1111 J
b1111 R
b1111 Z
b1011010 b
b1100011 j
b0 r
b11110101 z
b1111 ,"
b1111 4"
b1111 <"
#36
b10000110 B
b11010 b
b10011010 j
b110010 r
b11001110 z
b10000110 $"
#37
b10000110 J
b10000110 R
b10000110 Z
b10 b
b1000010 j
b10111101 r
b10001011 z
b10000110 ,"
b10000110 4"
b10000110 <"
#38
b1000011 B
b11111100 b
b101110 j
b10011110 r
b10100101 z
b1000011 $"
#39
b1000011 J
b1000011 R
b1000011 Z
b110000 b
b1001 j
b1000011 r
b111001 z
b1000011 ,"
b1000011 4"
b1000011 <"
#40
b10100000 B
b1100110 b
b10011101 j
b11000100 r
b10100110 z
b10100000 $"
#41
b10100000 J
b10100000 R
b10100000 Z
b10100100 b
b1101011 j
b11010 r
b10111100 z
b10100000 ,"
b10100000 4"
b10100000 <"
#42
b1010000 B
b10100101 b
b1010010 j
b1010001 r
b1000010 z
b1010000 $"
#43
b1010000 J
b1010000 R
b1010000 Z
b10101000 b
b1111010 j
b11011101 r
b110110 z
b1010000 ,"
b1010000 4"
b1010000 <"
#44
b101000 B
b11101000 b
b10000011 j
b11001010 r
b111000 z
b101000 $"
#45
b101000 J
b101000 R
b101000 Z
b1001101 b
b10111000 j
b10100000 r
b1011010 z
b101000 ,"
b101000 4"
b101000 <"
#46
b10100 B
b10101101 b
b10010101 j
b1101 r
b1001000 z
b10100 $"
#47
b10100 J
b10100 R
b10100 Z
b11111110 b
b1110101 j
b10011100 r
b11100010 z
b10100 ,"
b10100 4"
b10100 <"
#48
b1010 B
b10010000 b
b11010 j
b10100111 r
b11100100 z
b1010 $"
#49
b1010 J
b1010 R
b1010 Z
b1011100 b
b0 j
b10111 r
b10100101 z
b1010 ,"
b1010 4"
b1010 <"
#50
b101 B
b11000010 b
b11000110 j
b11110111 r
b1010110 z
b101 $"
#51
b101 J
b101 R
b101 Z
b10010111 b
b10110 j
b1100100 r
b10000011 z
b101 ,"
b101 4"
b101 <"
#52
b10000011 B
b11011 b
b110000 j
b10100100 r
b11101101 z
b10000011 $"
#53
b10000011 J
b10000011 R
b10000011 Z
b111111 b
b11010110 j
b10 r
b10111111 z
b10000011 ,"
b10000011 4"
b10000011 <"
#54
b11000000 B
b11100001 b
b11000010 j
b1010110 r
b11100101 z
b11000000 $"
#55
b11000000 J
b11000000 R
b11000000 Z
b111111 b
b10111010 j
b10110 r
b10110111 z
b11000000 ,"
b11000000 4"
b11000000 <"
#56
b1100000 B
b11110101 b
b11011111 j
b1010110 r
b10010001 z
b1100000 $"
#57
b1100000 J
b1100000 R
b1100000 Z
b1110110 b
b1111111 j
b11111 r
b10000 z
b1100000 ,"
b1100000 4"
b1100000 <"
#58
b110000 B
b0 b
b111111 j
b11000001 r
b10100111 z
b110000 $"
#59
b110000 J
b110000 R
b110000 Z
b10001111 b
b11100011 j
b1010110 r
b11100100 z
b110000 ,"
b110000 4"
b110000 <"
#60
b11000 B
b10110000 b
b1111111 j
b10110010 r
b10010101 z
b11000 $"
#61
b11000 J
b11000 R
b11000 Z
b11000010 b
b1011001 j
b11001 r
b11100111 z
b11000 ,"
b11000 4"
b11000 <"
#62
b1100 B
b11110 b
b10010000 j
b11000101 r
b10111101 z
b1100 $"
#63
b1100 J
b1100 R
b1100 Z
b10010110 b
b110000 j
b1010100 r
b1011110 z
b1100 ,"
b1100 4"
b1100 <"
#64
b110 B
b100010 b
b101010 j
b1000011 r
b101011 z
b110 $"
#65
b110 J
b110 R
b110 Z
b11010011 b
b11001011 j
b11101000 r
b11000101 z
b110 ,"
b110 4"
b110 <"
#66
b11 B
b100000 b
b111100 j
b11100001 r
b11110100 z
b11 $"
#67
b11 J
b11 R
b11 Z
b10101101 b
b11001010 j
b10000101 r
b10101111 z
b11 ,"
b11 4"
b11 <"
#68
b10000000 B
b11111001 b
b1011010 j
b10001000 r
b11101010 z
b10000000 $"
#69
b10000000 J
b10000000 R
b10000000 Z
b10100 b
b10010101 j
b1000001 r
b10111111 z
b10000000 ,"
b10000000 4"
b10000000 <"
#70
b1000000 B
b10100110 b
b11110001 j
b11000110 r
b1101111 z
b1000000 $"
#71
b1000000 J
b1000000 R
b1000000 Z
b11001010 b
b10000000 j
b1100011 r
b11100100 z
b1000000 ,"
b1000000 4"
b1000000 <"
#72
b100000 B
b10100001 b
b10100011 j
b10001111 r
b111011 z
b100000 $"
#73
b100000 J
b100000 R
b100000 Z
b11111111 b
b1011011 j
b11010100 r
b1010 z
b100000 ,"
b100000 4"
b100000 <"
#74
b10000 B
b1111100 b
b11101100 j
b10100100 r
b10010101 z
b10000 $"
#75
b10000 J
b10000 R
b10000 Z
b10101000 b
b11111110 j
b1010001 r
b11000 z
b10000 ,"
b10000 4"
b10000 <"
#76
b1000 B
b10000 b
b101111 j
b1011111 r
b11001000 z
b1000 $"
#77
b1000 J
b1000 R
b1000 Z
b11101110 b
b1001011 j
b11111111 r
b11101001 z
b1000 ,"
b1000 4"
b1000 <"
#78
b100 B
b10000001 b
b1100101 j
b10010101 r
b1100001 z
b100 $"
#79
b100 J
b100 R
b100 Z
b1010010 b
b11101000 j
b11111001 r
b11101101 z
b100 ,"
b100 4"
b100 <"
#80
b10 B
b100100 b
b1111100 j
b11001110 r
b1111111 z
b10 $"
#81
b10 J
b10 R
b10 Z
b11110011 b
b1111 j
b11000010 r
b1111101 z
b10 ,"
b10 4"
b10 <"
#82
b1 B
b111010 b
b1001111 j
b11100111 r
b1000001 z
b1 $"
#83
b1 J
b1 R
b1 Z
b10011011 b
b11 j
b10010110 r
b10010110 z
b1 ,"
b1 4"
b1 <"
#84
b10000001 B
b11110011 b
b10010 j
b11001010 r
b11100001 z
b10000001 $"
#85
b10000001 J
b10000001 R
b10000001 Z
b10010 b
b1001011 j
b1001000 r
b11101101 z
b10000001 ,"
b10000001 4"
b10000001 <"
#86
b11000001 B
b11010010 b
b11001110 j
b1001110 r
b10110001 z
b11000001 $"
#87
b11000001 J
b11000001 R
b11000001 Z
b1001110 b
b10101010 j
b11101101 r
b11010110 z
b11000001 ,"
b11000001 4"
b11000001 <"
#88
b11100001 B
b11011010 b
b101 j
b10100001 r
b101011 z
b11100001 $"
#89
b11100001 J
b11100001 R
b11100001 Z
b11010000 b
b1111100 j
b11100010 r
b10010110 z
b11100001 ,"
b11100001 4"
b11100001 <"
#90
b11110001 B
b1100 b
b100111 j
b11001001 r
b10000000 z
b11110001 $"
#91
b11110001 J
b11110001 R
b11110001 Z
b11000 b
b11111000 j
b10111100 r
b10001010 z
b11110001 ,"
b11110001 4"
b11110001 <"
#92
b11111001 B
b1101110 b
b11011001 j
b110101 r
b10101100 z
b11111001 $"
#93
b11111001 J
b11111001 R
b11111001 Z
b1010000 b
b1010010 j
b111110 r
b11 z
b11111001 ,"
b11111001 4"
b11111001 <"
#94
b11111101 B
b11011101 b
b11100110 j
b11100101 r
b11010011 z
b11111101 $"
#95
b11111101 J
b11111101 R
b11111101 Z
b110000 b
b11011 j
b1101110 r
b1100 z
b11111101 ,"
b11111101 4"
b11111101 <"
#96
b11111111 B
b10010100 b
b10010001 j
b10101 r
b10011101 z
b11111111 $"
#97
b11111111 J
b11111111 R
b11111111 Z
b1000 b
b10100111 j
b10011011 r
b10 z
b11111111 ,"
b11111111 4"
b11111111 <"
#98
b11111110 B
b1100110 b
b1011000 j
b11001111 r
b1011010 z
b11111110 $"
#99
b11111110 J
b11111110 R
b11111110 Z
b11010000 b
b11000001 j
b10101000 r
b10011010 z
b11111110 ,"
b11111110 4"
b11111110 <"
#100
b1111111 B
b1010000 b
b10110111 j
b11101011 r
b110010 z
b1111111 $"
#101
b1111111 J
b1111111 R
b1111111 Z
b11011100 b
b110011 j
b1111000 r
b11010100 z
b1111111 ,"
b1111111 4"
b1111111 <"
#102
b10111110 B
b10110010 b
b1101011 j
b11010111 r
b1 z
b10111110 $"
#103
b10111110 J
b10111110 R
b10111110 Z
b11001101 b
b101011 j
b100001 r
b11010110 z
b10111110 ,"
b10111110 4"
b10111110 <"
#104
b1011111 B
b10101011 b
b100010 j
b10110110 r
b11010001 z
b1011111 $"
#105
b1011111 J
b1011111 R
b1011111 Z
b11100010 b
b1111000 j
b11111 r
b111110 z
b1011111 ,"
b1011111 4"
b1011111 <"
#106
b10101110 B
b101001 b
b1001000 j
b10000100 r
b10110100 z
b10101110 $"
#107
b10101110 J
b10101110 R
b10101110 Z
b10010000 b
b1011100 j
b11100 r
b110101 z
b10101110 ,"
b10101110 4"
b10101110 <"
#108
b1010111 B
b11000001 b
b11010101 j
b10000111 r
b10010001 z
b1010111 $"
#109
b1010111 J
b1010111 R
b1010111 Z
b1000011 b
b11111101 j
b10001 r
b110100 z
b1010111 ,"
b1010111 4"
b1010111 <"
#110
b10101010 B
b110000 b
b111110 j
b0 r
b101001 z
b10101010 $"
#111
b10101010 J
b10101010 R
b10101010 Z
b1000010 b
b11000100 j
b10001000 r
b101100 z
b10101010 ,"
b10101010 4"
b10101010 <"
#112
b1010101 B
b1000001 b
b11011110 j
b100010 r
b11100111 z
b1010101 $"
#113
b1010101 J
b1010101 R
b1010101 Z
b10001101 b
b10101001 j
b1011011 r
b11001 z
b1010101 ,"
b1010101 4"
b1010101 <"
#114
b10101011 B
b1010011 b
b1111101 j
b101111 r
b11111010 z
b10101011 $"
#115
b10101011 J
b10101011 R
b10101011 Z
b11000101 b
b10011101 j
b10011101 r
b10000000 z
b10101011 ,"
b10101011 4"
b10101011 <"
#116
b11010100 B
b11010100 b
b1011001 j
b1101100 r
b10101001 z
b11010100 $"
#117
b11010100 J
b11010100 R
b11010100 Z
b1000111 b
b1001100 j
b10100110 r
b10011101 z
b11010100 ,"
b11010100 4"
b11010100 <"
#118
b1101010 B
b10011 b
b11101 j
b100110 r
b11100010 z
b1101010 $"
#119
b1101010 J
b1101010 R
b1101010 Z
b10010010 b
b1000001 j
b110 r
b1101101 z
b1101010 ,"
b1101010 4"
b1101010 <"
#120
b110101 B
b10010101 b
b11110001 j
b100001 r
b11111101 z
b110101 $"
#121
b110101 J
b110101 R
b110101 Z
b11001010 b
b110010 j
b1010101 r
b1101101 z
b110101 ,"
b110101 4"
b110101 <"
#122
b10011011 B
b1011100 b
b11001110 j
b1010 r
b11000000 z
b10011011 $"
#123
b10011011 J
b10011011 R
b10011011 Z
b101110 b
b1110000 j
b10010 r
b0 z
b10011011 ,"
b10011011 4"
b10011011 <"
#124
b11001100 B
b1001100 b
b10110111 j
b11010000 r
b11011011 z
b11001100 $"
#125
b11001100 J
b11001100 R
b11001100 Z
b11010010 b
b1001011 j
b1000110 r
b1010010 z
b11001100 ,"
b11001100 4"
b11001100 <"
#126
0*
b1100110 B
b11110110 b
b111100 j
b1010101 r
b10010 z
b1100110 $"
#127
1*
b1100110 J
b1100110 R
b1100110 Z
b11100110 b
b11010010 j
b10011110 r
b111001 z
b1100110 ,"
b1100110 4"
b1100110 <"
#128
b110011 B
b1000010 b
b10111111 j
b10101111 r
b10100111 z
b110011 $"
#129
b110011 J
b110011 R
b110011 Z
b101111 b
b10010110 j
b101110 r
b1100111 z
b110011 ,"
b110011 4"
b110011 <"
#130
b10011000 B
b1000101 b
b1101101 j
b1101010 r
b10100010 z
b10011000 $"
#131
b10011000 J
b10011000 R
b10011000 Z
b1011110 b
b100110 j
b11100001 r
b11101111 z
b10011000 ,"
b10011000 4"
b10011000 <"
#132
b1001100 B
b1011 b
b10000111 j
b10010100 r
b1101101 z
b1001100 $"
#133
b1001100 J
b1001100 R
b1001100 Z
b110010 b
b10000100 j
b1000 r
b1111111 z
b1001100 ,"
b1001100 4"
b1001100 <"
#134
b100110 B
b10111110 b
b1110010 j
b1001011 r
b10011000 z
b100110 $"
#135
b100110 J
b100110 R
b100110 Z
b1110100 b
b11110100 j
b1111001 r
b10110011 z
b100110 ,"
b100110 4"
b100110 <"
#136
b10011 B
b101 b
b1001011 j
b11111110 r
b11000 z
b10011 $"
#137
b10011 J
b10011 R
b10011 Z
b101111 b
b1011000 j
b10101000 r
b10010011 z
b10011 ,"
b10011 4"
b10011 <"
#138
b10001000 B
b11010010 b
b11011111 j
b1110011 r
b11001010 z
b10001000 $"
#139
b10001000 J
b10001000 R
b10001000 Z
b11010110 b
b11101 j
b10001 r
b1011101 z
b10001000 ,"
b10001000 4"
b10001000 <"
#140
b1000100 B
b10100101 b
b10101100 j
b1011011 r
b1110101 z
b1000100 $"
#141
b1000100 J
b1000100 R
b1000100 Z
b11111010 b
b10110111 j
b10011 r
b10100001 z
b1000100 ,"
b1000100 4"
b1000100 <"
#142
b100010 B
b10001110 b
b10110100 j
b11001111 r
b1001011 z
b100010 $"
#143
b100010 J
b100010 R
b100010 Z
b1100111 b
b101110 j
b1000010 r
b1000101 z
b100010 ,"
b100010 4"
b100010 <"
#144
b10001 B
b10111111 b
b110111 j
b1101001 r
b1111000 z
b10001 $"
#145
b10001 J
b10001 R
b10001 Z
b11000010 b
b11110001 j
b10110 r
b110100 z
b10001 ,"
b10001 4"
b10001 <"
#146
b10001001 B
b10010101 b
b10100000 j
b11001110 r
b1000001 z
b10001001 $"
#147
b10001001 J
b10001001 R
b10001001 Z
b1001100 b
b1100011 j
b101010 r
b11111 z
b10001001 ,"
b10001001 4"
b10001001 <"
#148
b11000101 B
b11011100 b
b11110000 j
b11000000 r
b11000111 z
b11000101 $"
#149
b11000101 J
b11000101 R
b11000101 Z
b1010111 b
b101111 j
b11001010 r
b1010 z
b11000101 ,"
b11000101 4"
b11000101 <"
#150
b11100011 B
b110111 b
b11001001 j
b11110111 r
b11011100 z
b11100011 $"
#151
b11100011 J
b11100011 R
b11100011 Z
b10001110 b
b10010111 j
b1011111 r
b1010000 z
b11100011 ,"
b11100011 4"
b11100011 <"
#152
b11110000 B
b10010111 b
b11010101 j
b10011 r
b10100001 z
b11110000 $"
#153
b11110000 J
b11110000 R
b11110000 Z
b1011111 b
b10111110 j
b10110011 r
b10111001 z
b11110000 ,"
b11110000 4"
b11110000 <"
#154
b1111000 B
b10001000 b
b11100100 j
b100101 r
b1111000 $"
#155
b1111000 J
b1111000 R
b1111000 Z
b11111 b
b1001000 j
b1110011 r
b1001000 z
b1111000 ,"
b1111000 4"
b1111000 <"
#156
b111100 B
b10011001 b
b11010000 j
b110111 r
b10010101 z
b111100 $"
#157
b111100 J
b111100 R
b111100 Z
b1011000 b
b1100000 j
b11011101 r
b110111 z
b111100 ,"
b111100 4"
b111100 <"
#158
b11110 B
b110010 b
b1110010 j
b1100001 r
b11011011 z
b11110 $"
#159
b11110 J
b11110 R
b11110 Z
b0 b
b1010000 j
b1011110 r
b111000 z
b11110 ,"
b11110 4"
b11110 <"
#160
b1111 B
b1001000 b
b1000100 j
b1011101 r
b11010011 z
b1111 $"
#161
b1111 J
b1111 R
b1111 Z
b1100101 b
b10111101 j
b11111110 r
b11001101 z
b1111 ,"
b1111 4"
b1111 <"
#162
b10000110 B
b10010010 b
b10110101 j
b11101111 r
b11000110 z
b10000110 $"
#163
b10000110 J
b10000110 R
b10000110 Z
b10110100 b
b10010111 j
b10101000 r
b1110000 z
b10000110 ,"
b10000110 4"
b10000110 <"
#164
b1000011 B
b101100 b
b1011 j
b1001 r
b100011 z
b1000011 $"
#165
b1000011 J
b1000011 R
b1000011 Z
b10000001 b
b110000 j
b10000111 r
b11000001 z
b1000011 ,"
b1000011 4"
b1000011 <"
#166
b10100000 B
b1111101 b
b10111011 j
b1000101 r
b10000 z
b10100000 $"
#167
b10100000 J
b10100000 R
b10100000 Z
b1010101 b
b11111101 j
b101011 r
b1110110 z
b10100000 ,"
b10100000 4"
b10100000 <"
#168
b1010000 B
b1111110 b
b10101 j
b11101101 r
b1100111 z
b1010000 $"
#169
b1010000 J
b1010000 R
b1010000 Z
b10101000 b
b1100111 j
b10101110 r
b1111010 z
b1010000 ,"
b1010000 4"
b1010000 <"
#170
b101000 B
b10111011 b
b101010 j
b1110011 r
b101011 z
b101000 $"
#171
b101000 J
b101000 R
b101000 Z
b10001101 b
b10110110 j
b10100000 r
b11111000 z
b101000 ,"
b101000 4"
b101000 <"
#172
b10100 B
b1010101 b
b10101010 j
b11000111 r
b1110110 z
b10100 $"
#173
b10100 J
b10100 R
b10100 Z
b10011011 b
b1110 j
b11011011 r
b1100011 z
b10100 ,"
b10100 4"
b10100 <"
#174
b1010 B
b10111101 b
b1010100 j
b11110011 r
b1011 z
b1010 $"
#175
b1010 J
b1010 R
b1010 Z
b10101011 b
b1010001 j
b11111101 r
b1000011 z
b1010 ,"
b1010 4"
b1010 <"
#176
b101 B
b11100100 b
b1101010 j
b11000001 r
b1001111 z
b101 $"
#177
b101 J
b101 R
b101 Z
b1100101 b
b10111011 j
b1100111 r
b10001111 z
b101 ,"
b101 4"
b101 <"
#178
b10000011 B
b11011101 b
b10011 j
b1110011 r
b100000 z
b10000011 $"
#179
b10000011 J
b10000011 R
b10000011 Z
b1001001 b
b1010011 j
b11101101 r
b10011010 z
b10000011 ,"
b10000011 4"
b10000011 <"
#180
b11000000 B
b1001110 b
b11000000 j
b11100110 r
b11100110 z
b11000000 $"
#181
b11000000 J
b11000000 R
b11000000 Z
b11100011 b
b11001010 j
b11010100 r
b1001010 z
b11000000 ,"
b11000000 4"
b11000000 <"
#182
b1100000 B
b10011101 b
b11111110 j
b111111 r
b101 z
b1100000 $"
#183
b1100000 J
b1100000 R
b1100000 Z
b101101 b
b10000000 j
b10010111 r
b11101011 z
b1100000 ,"
b1100000 4"
b1100000 <"
#184
b110000 B
b11001100 b
b11111110 j
b1000010 r
b1010100 z
b110000 $"
#185
b110000 J
b110000 R
b110000 Z
b1100100 b
b11111010 j
b1000011 r
b1100000 z
b110000 ,"
b110000 4"
b110000 <"
#186
b11000 B
b1010101 b
b11001 j
b10100111 r
b1011001 z
b11000 $"
#187
b11000 J
b11000 R
b11000 Z
b111110 b
b10111000 j
b11110101 r
b101010 z
b11000 ,"
b11000 4"
b11000 <"
#188
b1100 B
b10011011 b
b101011 j
b100111 r
b10000000 z
b1100 $"
#189
b1100 J
b1100 R
b1100 Z
b10001001 b
b11110101 j
b101001 r
b1001101 z
b1100 ,"
b1100 4"
b1100 <"
#190
b110 B
b11000111 b
b11100111 j
b10101010 r
b10011101 z
b110 $"
#191
b110 J
b110 R
b110 Z
b1101110 b
b11111001 j
b10101001 r
b11010 z
b110 ,"
b110 4"
b110 <"
#192
b11 B
b1000111 b
b1101101 j
b101010 r
b10110111 z
b11 $"
#193
b11 J
b11 R
b11 Z
b111000 b
b10101100 j
b11101010 r
b100010 z
b11 ,"
b11 4"
b11 <"
#194
b10000000 B
b11001000 b
b10100011 j
b10110101 r
b10011000 z
b10000000 $"
#195
b10000000 J
b10000000 R
b10000000 Z
b10001111 b
b110000 j
b11111100 r
b1100011 z
b10000000 ,"
b10000000 4"
b10000000 <"
#196
b1000000 B
b10001011 b
b10011000 j
b10010110 r
b1100000 z
b1000000 $"
